{
  "$schema": "http://adaptivecards.io/schemas/adaptive-card.json",
  "type": "AdaptiveCard",
  "version": "1.0",
  "backgroundColor": "rgba(0,0,255,1)",
  "body": [
    {
      "type": "ColumnSet",
      "columns": [
        {
          "type": "Column",
          "width": 2,
          "items": [
            {
              "type": "TextBlock",
              "text": "Name",
              "weight": "bolder",
              "wrap": true
            },
            {
              "type": "Input.Text",
              "id": "UserName"
            },
            {
              "type": "TextBlock",
              "text": "Email",
              "weight": "bolder",
              "wrap": true
            },
            {
              "type": "Input.Text",
              "id": "UserEmail",
              "placeholder": "youremail@example.com",
              "style": "email"
            },
            {
              "type": "TextBlock",
              "text": "Phone Number",
              "weight": "bolder"
            },
            {
              "type": "Input.Text",
              "id": "UserPhoneNumber",
              "style": "tel"
            }
          ]
        }
      ]
    }
  ],
  "actions": [
    {
      "type": "Action.Submit",
      "title": "Submit",
      "data": {
        "action": "processUserInfo"
      }
    }
  ]
}